^C:\USERS\GVOZDEV\DESKTOP\UIRS5SEMESTER2019\SRC\TESTS\GREISPARSERTEST\PCH.CPP
/c /I"C:\USERS\GVOZDEV\DESKTOP\UIRS5SEMESTER2019\SRC\UIRS5SEM\PACKAGES\MICROSOFT.GOOGLETEST.V140.WINDESKTOP.MSVCSTL.STATIC.RT-DYN.1.8.1\BUILD\NATIVE\INCLUDE" /Zi /nologo /W3 /WX- /diagnostics:column /Od /Oy- /D WIN32 /D _DEBUG /D _CONSOLE /D _UNICODE /D UNICODE /Gm- /EHsc /RTC1 /MDd /GS /fp:precise /Zc:wchar_t /Zc:forScope /Zc:inline /Yc"pch.h" /Fp"DEBUG\GREISPARSERTEST.PCH" /Fo"DEBUG\\" /Fd"DEBUG\VC142.PDB" /Gd /TP /analyze- /FC C:\USERS\GVOZDEV\DESKTOP\UIRS5SEMESTER2019\SRC\TESTS\GREISPARSERTEST\PCH.CPP
^C:\USERS\GVOZDEV\DESKTOP\UIRS5SEMESTER2019\SRC\TESTS\GREISPARSERTEST\SOURCE.CPP
/c /I"C:\USERS\GVOZDEV\DESKTOP\UIRS5SEMESTER2019\SRC\UIRS5SEM\PACKAGES\MICROSOFT.GOOGLETEST.V140.WINDESKTOP.MSVCSTL.STATIC.RT-DYN.1.8.1\BUILD\NATIVE\INCLUDE" /Zi /nologo /W3 /WX- /diagnostics:column /Od /Oy- /D WIN32 /D _DEBUG /D _CONSOLE /D _UNICODE /D UNICODE /Gm- /EHsc /RTC1 /MDd /GS /fp:precise /Zc:wchar_t /Zc:forScope /Zc:inline /Yu"pch.h" /Fp"DEBUG\GREISPARSERTEST.PCH" /Fo"DEBUG\\" /Fd"DEBUG\VC142.PDB" /Gd /TP /analyze- /FC C:\USERS\GVOZDEV\DESKTOP\UIRS5SEMESTER2019\SRC\TESTS\GREISPARSERTEST\SOURCE.CPP
^C:\USERS\GVOZDEV\DESKTOP\UIRS5SEMESTER2019\SRC\TESTS\GREISPARSERTEST\TEST.CPP
/c /I"C:\USERS\GVOZDEV\DESKTOP\UIRS5SEMESTER2019\SRC\UIRS5SEM\PACKAGES\MICROSOFT.GOOGLETEST.V140.WINDESKTOP.MSVCSTL.STATIC.RT-DYN.1.8.1\BUILD\NATIVE\INCLUDE" /Zi /nologo /W3 /WX- /diagnostics:column /Od /Oy- /D WIN32 /D _DEBUG /D _CONSOLE /D _UNICODE /D UNICODE /Gm- /EHsc /RTC1 /MDd /GS /fp:precise /Zc:wchar_t /Zc:forScope /Zc:inline /Yu"pch.h" /Fp"DEBUG\GREISPARSERTEST.PCH" /Fo"DEBUG\\" /Fd"DEBUG\VC142.PDB" /Gd /TP /analyze- /FC C:\USERS\GVOZDEV\DESKTOP\UIRS5SEMESTER2019\SRC\TESTS\GREISPARSERTEST\TEST.CPP
^C:\USERS\GVOZDEV\DESKTOP\UIRS5SEMESTER2019\SRC\TESTS\GREISPARSERTEST\INCLUDEIVARTEST.CPP
/c /I"C:\USERS\GVOZDEV\DESKTOP\UIRS5SEMESTER2019\SRC\UIRS5SEM\PACKAGES\MICROSOFT.GOOGLETEST.V140.WINDESKTOP.MSVCSTL.STATIC.RT-DYN.1.8.1\BUILD\NATIVE\INCLUDE" /Zi /nologo /W3 /WX- /diagnostics:column /Od /Oy- /D WIN32 /D _DEBUG /D _CONSOLE /D _UNICODE /D UNICODE /Gm- /EHsc /RTC1 /MDd /GS /fp:precise /Zc:wchar_t /Zc:forScope /Zc:inline /Yu"pch.h" /Fp"DEBUG\GREISPARSERTEST.PCH" /Fo"DEBUG\\" /Fd"DEBUG\VC142.PDB" /Gd /TP /analyze- /FC C:\USERS\GVOZDEV\DESKTOP\UIRS5SEMESTER2019\SRC\TESTS\GREISPARSERTEST\INCLUDEIVARTEST.CPP
^C:\USERS\GVOZDEV\DESKTOP\UIRS5SEMESTER2019\SRC\TESTS\GREISPARSERTEST\VAR10TEST.CPP
/c /I"C:\USERS\GVOZDEV\DESKTOP\UIRS5SEMESTER2019\SRC\UIRS5SEM\PACKAGES\MICROSOFT.GOOGLETEST.V140.WINDESKTOP.MSVCSTL.STATIC.RT-DYN.1.8.1\BUILD\NATIVE\INCLUDE" /Zi /nologo /W3 /WX- /diagnostics:column /Od /Oy- /D WIN32 /D _DEBUG /D _CONSOLE /D _UNICODE /D UNICODE /Gm- /EHsc /RTC1 /MDd /GS /fp:precise /Zc:wchar_t /Zc:forScope /Zc:inline /Yu"pch.h" /Fp"DEBUG\GREISPARSERTEST.PCH" /Fo"DEBUG\\" /Fd"DEBUG\VC142.PDB" /Gd /TP /analyze- /FC C:\USERS\GVOZDEV\DESKTOP\UIRS5SEMESTER2019\SRC\TESTS\GREISPARSERTEST\VAR10TEST.CPP
^C:\USERS\GVOZDEV\DESKTOP\UIRS5SEMESTER2019\SRC\TESTS\GREISPARSERTEST\VAR11TEST.CPP
/c /I"C:\USERS\GVOZDEV\DESKTOP\UIRS5SEMESTER2019\SRC\UIRS5SEM\PACKAGES\MICROSOFT.GOOGLETEST.V140.WINDESKTOP.MSVCSTL.STATIC.RT-DYN.1.8.1\BUILD\NATIVE\INCLUDE" /Zi /nologo /W3 /WX- /diagnostics:column /Od /Oy- /D WIN32 /D _DEBUG /D _CONSOLE /D _UNICODE /D UNICODE /Gm- /EHsc /RTC1 /MDd /GS /fp:precise /Zc:wchar_t /Zc:forScope /Zc:inline /Yu"pch.h" /Fp"DEBUG\GREISPARSERTEST.PCH" /Fo"DEBUG\\" /Fd"DEBUG\VC142.PDB" /Gd /TP /analyze- /FC C:\USERS\GVOZDEV\DESKTOP\UIRS5SEMESTER2019\SRC\TESTS\GREISPARSERTEST\VAR11TEST.CPP
^C:\USERS\GVOZDEV\DESKTOP\UIRS5SEMESTER2019\SRC\TESTS\GREISPARSERTEST\VAR12TEST.CPP
/c /I"C:\USERS\GVOZDEV\DESKTOP\UIRS5SEMESTER2019\SRC\UIRS5SEM\PACKAGES\MICROSOFT.GOOGLETEST.V140.WINDESKTOP.MSVCSTL.STATIC.RT-DYN.1.8.1\BUILD\NATIVE\INCLUDE" /Zi /nologo /W3 /WX- /diagnostics:column /Od /Oy- /D WIN32 /D _DEBUG /D _CONSOLE /D _UNICODE /D UNICODE /Gm- /EHsc /RTC1 /MDd /GS /fp:precise /Zc:wchar_t /Zc:forScope /Zc:inline /Yu"pch.h" /Fp"DEBUG\GREISPARSERTEST.PCH" /Fo"DEBUG\\" /Fd"DEBUG\VC142.PDB" /Gd /TP /analyze- /FC C:\USERS\GVOZDEV\DESKTOP\UIRS5SEMESTER2019\SRC\TESTS\GREISPARSERTEST\VAR12TEST.CPP
^C:\USERS\GVOZDEV\DESKTOP\UIRS5SEMESTER2019\SRC\TESTS\GREISPARSERTEST\VAR13TEST.CPP
/c /I"C:\USERS\GVOZDEV\DESKTOP\UIRS5SEMESTER2019\SRC\UIRS5SEM\PACKAGES\MICROSOFT.GOOGLETEST.V140.WINDESKTOP.MSVCSTL.STATIC.RT-DYN.1.8.1\BUILD\NATIVE\INCLUDE" /Zi /nologo /W3 /WX- /diagnostics:column /Od /Oy- /D WIN32 /D _DEBUG /D _CONSOLE /D _UNICODE /D UNICODE /Gm- /EHsc /RTC1 /MDd /GS /fp:precise /Zc:wchar_t /Zc:forScope /Zc:inline /Yu"pch.h" /Fp"DEBUG\GREISPARSERTEST.PCH" /Fo"DEBUG\\" /Fd"DEBUG\VC142.PDB" /Gd /TP /analyze- /FC C:\USERS\GVOZDEV\DESKTOP\UIRS5SEMESTER2019\SRC\TESTS\GREISPARSERTEST\VAR13TEST.CPP
^C:\USERS\GVOZDEV\DESKTOP\UIRS5SEMESTER2019\SRC\TESTS\GREISPARSERTEST\VAR14TEST.CPP
/c /I"C:\USERS\GVOZDEV\DESKTOP\UIRS5SEMESTER2019\SRC\UIRS5SEM\PACKAGES\MICROSOFT.GOOGLETEST.V140.WINDESKTOP.MSVCSTL.STATIC.RT-DYN.1.8.1\BUILD\NATIVE\INCLUDE" /Zi /nologo /W3 /WX- /diagnostics:column /Od /Oy- /D WIN32 /D _DEBUG /D _CONSOLE /D _UNICODE /D UNICODE /Gm- /EHsc /RTC1 /MDd /GS /fp:precise /Zc:wchar_t /Zc:forScope /Zc:inline /Yu"pch.h" /Fp"DEBUG\GREISPARSERTEST.PCH" /Fo"DEBUG\\" /Fd"DEBUG\VC142.PDB" /Gd /TP /analyze- /FC C:\USERS\GVOZDEV\DESKTOP\UIRS5SEMESTER2019\SRC\TESTS\GREISPARSERTEST\VAR14TEST.CPP
^C:\USERS\GVOZDEV\DESKTOP\UIRS5SEMESTER2019\SRC\TESTS\GREISPARSERTEST\VAR15TEST.CPP
/c /I"C:\USERS\GVOZDEV\DESKTOP\UIRS5SEMESTER2019\SRC\UIRS5SEM\PACKAGES\MICROSOFT.GOOGLETEST.V140.WINDESKTOP.MSVCSTL.STATIC.RT-DYN.1.8.1\BUILD\NATIVE\INCLUDE" /Zi /nologo /W3 /WX- /diagnostics:column /Od /Oy- /D WIN32 /D _DEBUG /D _CONSOLE /D _UNICODE /D UNICODE /Gm- /EHsc /RTC1 /MDd /GS /fp:precise /Zc:wchar_t /Zc:forScope /Zc:inline /Yu"pch.h" /Fp"DEBUG\GREISPARSERTEST.PCH" /Fo"DEBUG\\" /Fd"DEBUG\VC142.PDB" /Gd /TP /analyze- /FC C:\USERS\GVOZDEV\DESKTOP\UIRS5SEMESTER2019\SRC\TESTS\GREISPARSERTEST\VAR15TEST.CPP
^C:\USERS\GVOZDEV\DESKTOP\UIRS5SEMESTER2019\SRC\TESTS\GREISPARSERTEST\VAR16TEST.CPP
/c /I"C:\USERS\GVOZDEV\DESKTOP\UIRS5SEMESTER2019\SRC\UIRS5SEM\PACKAGES\MICROSOFT.GOOGLETEST.V140.WINDESKTOP.MSVCSTL.STATIC.RT-DYN.1.8.1\BUILD\NATIVE\INCLUDE" /Zi /nologo /W3 /WX- /diagnostics:column /Od /Oy- /D WIN32 /D _DEBUG /D _CONSOLE /D _UNICODE /D UNICODE /Gm- /EHsc /RTC1 /MDd /GS /fp:precise /Zc:wchar_t /Zc:forScope /Zc:inline /Yu"pch.h" /Fp"DEBUG\GREISPARSERTEST.PCH" /Fo"DEBUG\\" /Fd"DEBUG\VC142.PDB" /Gd /TP /analyze- /FC C:\USERS\GVOZDEV\DESKTOP\UIRS5SEMESTER2019\SRC\TESTS\GREISPARSERTEST\VAR16TEST.CPP
^C:\USERS\GVOZDEV\DESKTOP\UIRS5SEMESTER2019\SRC\TESTS\GREISPARSERTEST\VAR17TEST.CPP
/c /I"C:\USERS\GVOZDEV\DESKTOP\UIRS5SEMESTER2019\SRC\UIRS5SEM\PACKAGES\MICROSOFT.GOOGLETEST.V140.WINDESKTOP.MSVCSTL.STATIC.RT-DYN.1.8.1\BUILD\NATIVE\INCLUDE" /Zi /nologo /W3 /WX- /diagnostics:column /Od /Oy- /D WIN32 /D _DEBUG /D _CONSOLE /D _UNICODE /D UNICODE /Gm- /EHsc /RTC1 /MDd /GS /fp:precise /Zc:wchar_t /Zc:forScope /Zc:inline /Yu"pch.h" /Fp"DEBUG\GREISPARSERTEST.PCH" /Fo"DEBUG\\" /Fd"DEBUG\VC142.PDB" /Gd /TP /analyze- /FC C:\USERS\GVOZDEV\DESKTOP\UIRS5SEMESTER2019\SRC\TESTS\GREISPARSERTEST\VAR17TEST.CPP
^C:\USERS\GVOZDEV\DESKTOP\UIRS5SEMESTER2019\SRC\TESTS\GREISPARSERTEST\VAR18TEST.CPP
/c /I"C:\USERS\GVOZDEV\DESKTOP\UIRS5SEMESTER2019\SRC\UIRS5SEM\PACKAGES\MICROSOFT.GOOGLETEST.V140.WINDESKTOP.MSVCSTL.STATIC.RT-DYN.1.8.1\BUILD\NATIVE\INCLUDE" /Zi /nologo /W3 /WX- /diagnostics:column /Od /Oy- /D WIN32 /D _DEBUG /D _CONSOLE /D _UNICODE /D UNICODE /Gm- /EHsc /RTC1 /MDd /GS /fp:precise /Zc:wchar_t /Zc:forScope /Zc:inline /Yu"pch.h" /Fp"DEBUG\GREISPARSERTEST.PCH" /Fo"DEBUG\\" /Fd"DEBUG\VC142.PDB" /Gd /TP /analyze- /FC C:\USERS\GVOZDEV\DESKTOP\UIRS5SEMESTER2019\SRC\TESTS\GREISPARSERTEST\VAR18TEST.CPP
^C:\USERS\GVOZDEV\DESKTOP\UIRS5SEMESTER2019\SRC\TESTS\GREISPARSERTEST\VAR19TEST.CPP
/c /I"C:\USERS\GVOZDEV\DESKTOP\UIRS5SEMESTER2019\SRC\UIRS5SEM\PACKAGES\MICROSOFT.GOOGLETEST.V140.WINDESKTOP.MSVCSTL.STATIC.RT-DYN.1.8.1\BUILD\NATIVE\INCLUDE" /Zi /nologo /W3 /WX- /diagnostics:column /Od /Oy- /D WIN32 /D _DEBUG /D _CONSOLE /D _UNICODE /D UNICODE /Gm- /EHsc /RTC1 /MDd /GS /fp:precise /Zc:wchar_t /Zc:forScope /Zc:inline /Yu"pch.h" /Fp"DEBUG\GREISPARSERTEST.PCH" /Fo"DEBUG\\" /Fd"DEBUG\VC142.PDB" /Gd /TP /analyze- /FC C:\USERS\GVOZDEV\DESKTOP\UIRS5SEMESTER2019\SRC\TESTS\GREISPARSERTEST\VAR19TEST.CPP
^C:\USERS\GVOZDEV\DESKTOP\UIRS5SEMESTER2019\SRC\TESTS\GREISPARSERTEST\VAR1TEST.CPP
/c /I"C:\USERS\GVOZDEV\DESKTOP\UIRS5SEMESTER2019\SRC\UIRS5SEM\PACKAGES\MICROSOFT.GOOGLETEST.V140.WINDESKTOP.MSVCSTL.STATIC.RT-DYN.1.8.1\BUILD\NATIVE\INCLUDE" /Zi /nologo /W3 /WX- /diagnostics:column /Od /Oy- /D WIN32 /D _DEBUG /D _CONSOLE /D _UNICODE /D UNICODE /Gm- /EHsc /RTC1 /MDd /GS /fp:precise /Zc:wchar_t /Zc:forScope /Zc:inline /Yu"pch.h" /Fp"DEBUG\GREISPARSERTEST.PCH" /Fo"DEBUG\\" /Fd"DEBUG\VC142.PDB" /Gd /TP /analyze- /FC C:\USERS\GVOZDEV\DESKTOP\UIRS5SEMESTER2019\SRC\TESTS\GREISPARSERTEST\VAR1TEST.CPP
^C:\USERS\GVOZDEV\DESKTOP\UIRS5SEMESTER2019\SRC\TESTS\GREISPARSERTEST\VAR20TEST.CPP
/c /I"C:\USERS\GVOZDEV\DESKTOP\UIRS5SEMESTER2019\SRC\UIRS5SEM\PACKAGES\MICROSOFT.GOOGLETEST.V140.WINDESKTOP.MSVCSTL.STATIC.RT-DYN.1.8.1\BUILD\NATIVE\INCLUDE" /Zi /nologo /W3 /WX- /diagnostics:column /Od /Oy- /D WIN32 /D _DEBUG /D _CONSOLE /D _UNICODE /D UNICODE /Gm- /EHsc /RTC1 /MDd /GS /fp:precise /Zc:wchar_t /Zc:forScope /Zc:inline /Yu"pch.h" /Fp"DEBUG\GREISPARSERTEST.PCH" /Fo"DEBUG\\" /Fd"DEBUG\VC142.PDB" /Gd /TP /analyze- /FC C:\USERS\GVOZDEV\DESKTOP\UIRS5SEMESTER2019\SRC\TESTS\GREISPARSERTEST\VAR20TEST.CPP
^C:\USERS\GVOZDEV\DESKTOP\UIRS5SEMESTER2019\SRC\TESTS\GREISPARSERTEST\VAR21TEST.CPP
/c /I"C:\USERS\GVOZDEV\DESKTOP\UIRS5SEMESTER2019\SRC\UIRS5SEM\PACKAGES\MICROSOFT.GOOGLETEST.V140.WINDESKTOP.MSVCSTL.STATIC.RT-DYN.1.8.1\BUILD\NATIVE\INCLUDE" /Zi /nologo /W3 /WX- /diagnostics:column /Od /Oy- /D WIN32 /D _DEBUG /D _CONSOLE /D _UNICODE /D UNICODE /Gm- /EHsc /RTC1 /MDd /GS /fp:precise /Zc:wchar_t /Zc:forScope /Zc:inline /Yu"pch.h" /Fp"DEBUG\GREISPARSERTEST.PCH" /Fo"DEBUG\\" /Fd"DEBUG\VC142.PDB" /Gd /TP /analyze- /FC C:\USERS\GVOZDEV\DESKTOP\UIRS5SEMESTER2019\SRC\TESTS\GREISPARSERTEST\VAR21TEST.CPP
^C:\USERS\GVOZDEV\DESKTOP\UIRS5SEMESTER2019\SRC\TESTS\GREISPARSERTEST\VAR22TEST.CPP
/c /I"C:\USERS\GVOZDEV\DESKTOP\UIRS5SEMESTER2019\SRC\UIRS5SEM\PACKAGES\MICROSOFT.GOOGLETEST.V140.WINDESKTOP.MSVCSTL.STATIC.RT-DYN.1.8.1\BUILD\NATIVE\INCLUDE" /Zi /nologo /W3 /WX- /diagnostics:column /Od /Oy- /D WIN32 /D _DEBUG /D _CONSOLE /D _UNICODE /D UNICODE /Gm- /EHsc /RTC1 /MDd /GS /fp:precise /Zc:wchar_t /Zc:forScope /Zc:inline /Yu"pch.h" /Fp"DEBUG\GREISPARSERTEST.PCH" /Fo"DEBUG\\" /Fd"DEBUG\VC142.PDB" /Gd /TP /analyze- /FC C:\USERS\GVOZDEV\DESKTOP\UIRS5SEMESTER2019\SRC\TESTS\GREISPARSERTEST\VAR22TEST.CPP
^C:\USERS\GVOZDEV\DESKTOP\UIRS5SEMESTER2019\SRC\TESTS\GREISPARSERTEST\VAR23TEST.CPP
/c /I"C:\USERS\GVOZDEV\DESKTOP\UIRS5SEMESTER2019\SRC\UIRS5SEM\PACKAGES\MICROSOFT.GOOGLETEST.V140.WINDESKTOP.MSVCSTL.STATIC.RT-DYN.1.8.1\BUILD\NATIVE\INCLUDE" /Zi /nologo /W3 /WX- /diagnostics:column /Od /Oy- /D WIN32 /D _DEBUG /D _CONSOLE /D _UNICODE /D UNICODE /Gm- /EHsc /RTC1 /MDd /GS /fp:precise /Zc:wchar_t /Zc:forScope /Zc:inline /Yu"pch.h" /Fp"DEBUG\GREISPARSERTEST.PCH" /Fo"DEBUG\\" /Fd"DEBUG\VC142.PDB" /Gd /TP /analyze- /FC C:\USERS\GVOZDEV\DESKTOP\UIRS5SEMESTER2019\SRC\TESTS\GREISPARSERTEST\VAR23TEST.CPP
^C:\USERS\GVOZDEV\DESKTOP\UIRS5SEMESTER2019\SRC\TESTS\GREISPARSERTEST\VAR24TEST.CPP
/c /I"C:\USERS\GVOZDEV\DESKTOP\UIRS5SEMESTER2019\SRC\UIRS5SEM\PACKAGES\MICROSOFT.GOOGLETEST.V140.WINDESKTOP.MSVCSTL.STATIC.RT-DYN.1.8.1\BUILD\NATIVE\INCLUDE" /Zi /nologo /W3 /WX- /diagnostics:column /Od /Oy- /D WIN32 /D _DEBUG /D _CONSOLE /D _UNICODE /D UNICODE /Gm- /EHsc /RTC1 /MDd /GS /fp:precise /Zc:wchar_t /Zc:forScope /Zc:inline /Yu"pch.h" /Fp"DEBUG\GREISPARSERTEST.PCH" /Fo"DEBUG\\" /Fd"DEBUG\VC142.PDB" /Gd /TP /analyze- /FC C:\USERS\GVOZDEV\DESKTOP\UIRS5SEMESTER2019\SRC\TESTS\GREISPARSERTEST\VAR24TEST.CPP
^C:\USERS\GVOZDEV\DESKTOP\UIRS5SEMESTER2019\SRC\TESTS\GREISPARSERTEST\VAR25TEST.CPP
/c /I"C:\USERS\GVOZDEV\DESKTOP\UIRS5SEMESTER2019\SRC\UIRS5SEM\PACKAGES\MICROSOFT.GOOGLETEST.V140.WINDESKTOP.MSVCSTL.STATIC.RT-DYN.1.8.1\BUILD\NATIVE\INCLUDE" /Zi /nologo /W3 /WX- /diagnostics:column /Od /Oy- /D WIN32 /D _DEBUG /D _CONSOLE /D _UNICODE /D UNICODE /Gm- /EHsc /RTC1 /MDd /GS /fp:precise /Zc:wchar_t /Zc:forScope /Zc:inline /Yu"pch.h" /Fp"DEBUG\GREISPARSERTEST.PCH" /Fo"DEBUG\\" /Fd"DEBUG\VC142.PDB" /Gd /TP /analyze- /FC C:\USERS\GVOZDEV\DESKTOP\UIRS5SEMESTER2019\SRC\TESTS\GREISPARSERTEST\VAR25TEST.CPP
^C:\USERS\GVOZDEV\DESKTOP\UIRS5SEMESTER2019\SRC\TESTS\GREISPARSERTEST\VAR26TEST.CPP
/c /I"C:\USERS\GVOZDEV\DESKTOP\UIRS5SEMESTER2019\SRC\UIRS5SEM\PACKAGES\MICROSOFT.GOOGLETEST.V140.WINDESKTOP.MSVCSTL.STATIC.RT-DYN.1.8.1\BUILD\NATIVE\INCLUDE" /Zi /nologo /W3 /WX- /diagnostics:column /Od /Oy- /D WIN32 /D _DEBUG /D _CONSOLE /D _UNICODE /D UNICODE /Gm- /EHsc /RTC1 /MDd /GS /fp:precise /Zc:wchar_t /Zc:forScope /Zc:inline /Yu"pch.h" /Fp"DEBUG\GREISPARSERTEST.PCH" /Fo"DEBUG\\" /Fd"DEBUG\VC142.PDB" /Gd /TP /analyze- /FC C:\USERS\GVOZDEV\DESKTOP\UIRS5SEMESTER2019\SRC\TESTS\GREISPARSERTEST\VAR26TEST.CPP
^C:\USERS\GVOZDEV\DESKTOP\UIRS5SEMESTER2019\SRC\TESTS\GREISPARSERTEST\VAR27TEST.CPP
/c /I"C:\USERS\GVOZDEV\DESKTOP\UIRS5SEMESTER2019\SRC\UIRS5SEM\PACKAGES\MICROSOFT.GOOGLETEST.V140.WINDESKTOP.MSVCSTL.STATIC.RT-DYN.1.8.1\BUILD\NATIVE\INCLUDE" /Zi /nologo /W3 /WX- /diagnostics:column /Od /Oy- /D WIN32 /D _DEBUG /D _CONSOLE /D _UNICODE /D UNICODE /Gm- /EHsc /RTC1 /MDd /GS /fp:precise /Zc:wchar_t /Zc:forScope /Zc:inline /Yu"pch.h" /Fp"DEBUG\GREISPARSERTEST.PCH" /Fo"DEBUG\\" /Fd"DEBUG\VC142.PDB" /Gd /TP /analyze- /FC C:\USERS\GVOZDEV\DESKTOP\UIRS5SEMESTER2019\SRC\TESTS\GREISPARSERTEST\VAR27TEST.CPP
^C:\USERS\GVOZDEV\DESKTOP\UIRS5SEMESTER2019\SRC\TESTS\GREISPARSERTEST\VAR28TEST.CPP
/c /I"C:\USERS\GVOZDEV\DESKTOP\UIRS5SEMESTER2019\SRC\UIRS5SEM\PACKAGES\MICROSOFT.GOOGLETEST.V140.WINDESKTOP.MSVCSTL.STATIC.RT-DYN.1.8.1\BUILD\NATIVE\INCLUDE" /Zi /nologo /W3 /WX- /diagnostics:column /Od /Oy- /D WIN32 /D _DEBUG /D _CONSOLE /D _UNICODE /D UNICODE /Gm- /EHsc /RTC1 /MDd /GS /fp:precise /Zc:wchar_t /Zc:forScope /Zc:inline /Yu"pch.h" /Fp"DEBUG\GREISPARSERTEST.PCH" /Fo"DEBUG\\" /Fd"DEBUG\VC142.PDB" /Gd /TP /analyze- /FC C:\USERS\GVOZDEV\DESKTOP\UIRS5SEMESTER2019\SRC\TESTS\GREISPARSERTEST\VAR28TEST.CPP
^C:\USERS\GVOZDEV\DESKTOP\UIRS5SEMESTER2019\SRC\TESTS\GREISPARSERTEST\VAR29TEST.CPP
/c /I"C:\USERS\GVOZDEV\DESKTOP\UIRS5SEMESTER2019\SRC\UIRS5SEM\PACKAGES\MICROSOFT.GOOGLETEST.V140.WINDESKTOP.MSVCSTL.STATIC.RT-DYN.1.8.1\BUILD\NATIVE\INCLUDE" /Zi /nologo /W3 /WX- /diagnostics:column /Od /Oy- /D WIN32 /D _DEBUG /D _CONSOLE /D _UNICODE /D UNICODE /Gm- /EHsc /RTC1 /MDd /GS /fp:precise /Zc:wchar_t /Zc:forScope /Zc:inline /Yu"pch.h" /Fp"DEBUG\GREISPARSERTEST.PCH" /Fo"DEBUG\\" /Fd"DEBUG\VC142.PDB" /Gd /TP /analyze- /FC C:\USERS\GVOZDEV\DESKTOP\UIRS5SEMESTER2019\SRC\TESTS\GREISPARSERTEST\VAR29TEST.CPP
^C:\USERS\GVOZDEV\DESKTOP\UIRS5SEMESTER2019\SRC\TESTS\GREISPARSERTEST\VAR2TEST.CPP
/c /I"C:\USERS\GVOZDEV\DESKTOP\UIRS5SEMESTER2019\SRC\UIRS5SEM\PACKAGES\MICROSOFT.GOOGLETEST.V140.WINDESKTOP.MSVCSTL.STATIC.RT-DYN.1.8.1\BUILD\NATIVE\INCLUDE" /Zi /nologo /W3 /WX- /diagnostics:column /Od /Oy- /D WIN32 /D _DEBUG /D _CONSOLE /D _UNICODE /D UNICODE /Gm- /EHsc /RTC1 /MDd /GS /fp:precise /Zc:wchar_t /Zc:forScope /Zc:inline /Yu"pch.h" /Fp"DEBUG\GREISPARSERTEST.PCH" /Fo"DEBUG\\" /Fd"DEBUG\VC142.PDB" /Gd /TP /analyze- /FC C:\USERS\GVOZDEV\DESKTOP\UIRS5SEMESTER2019\SRC\TESTS\GREISPARSERTEST\VAR2TEST.CPP
^C:\USERS\GVOZDEV\DESKTOP\UIRS5SEMESTER2019\SRC\TESTS\GREISPARSERTEST\VAR30TEST.CPP
/c /I"C:\USERS\GVOZDEV\DESKTOP\UIRS5SEMESTER2019\SRC\UIRS5SEM\PACKAGES\MICROSOFT.GOOGLETEST.V140.WINDESKTOP.MSVCSTL.STATIC.RT-DYN.1.8.1\BUILD\NATIVE\INCLUDE" /Zi /nologo /W3 /WX- /diagnostics:column /Od /Oy- /D WIN32 /D _DEBUG /D _CONSOLE /D _UNICODE /D UNICODE /Gm- /EHsc /RTC1 /MDd /GS /fp:precise /Zc:wchar_t /Zc:forScope /Zc:inline /Yu"pch.h" /Fp"DEBUG\GREISPARSERTEST.PCH" /Fo"DEBUG\\" /Fd"DEBUG\VC142.PDB" /Gd /TP /analyze- /FC C:\USERS\GVOZDEV\DESKTOP\UIRS5SEMESTER2019\SRC\TESTS\GREISPARSERTEST\VAR30TEST.CPP
^C:\USERS\GVOZDEV\DESKTOP\UIRS5SEMESTER2019\SRC\TESTS\GREISPARSERTEST\VAR31TEST.CPP
/c /I"C:\USERS\GVOZDEV\DESKTOP\UIRS5SEMESTER2019\SRC\UIRS5SEM\PACKAGES\MICROSOFT.GOOGLETEST.V140.WINDESKTOP.MSVCSTL.STATIC.RT-DYN.1.8.1\BUILD\NATIVE\INCLUDE" /Zi /nologo /W3 /WX- /diagnostics:column /Od /Oy- /D WIN32 /D _DEBUG /D _CONSOLE /D _UNICODE /D UNICODE /Gm- /EHsc /RTC1 /MDd /GS /fp:precise /Zc:wchar_t /Zc:forScope /Zc:inline /Yu"pch.h" /Fp"DEBUG\GREISPARSERTEST.PCH" /Fo"DEBUG\\" /Fd"DEBUG\VC142.PDB" /Gd /TP /analyze- /FC C:\USERS\GVOZDEV\DESKTOP\UIRS5SEMESTER2019\SRC\TESTS\GREISPARSERTEST\VAR31TEST.CPP
^C:\USERS\GVOZDEV\DESKTOP\UIRS5SEMESTER2019\SRC\TESTS\GREISPARSERTEST\VAR32TEST.CPP
/c /I"C:\USERS\GVOZDEV\DESKTOP\UIRS5SEMESTER2019\SRC\UIRS5SEM\PACKAGES\MICROSOFT.GOOGLETEST.V140.WINDESKTOP.MSVCSTL.STATIC.RT-DYN.1.8.1\BUILD\NATIVE\INCLUDE" /Zi /nologo /W3 /WX- /diagnostics:column /Od /Oy- /D WIN32 /D _DEBUG /D _CONSOLE /D _UNICODE /D UNICODE /Gm- /EHsc /RTC1 /MDd /GS /fp:precise /Zc:wchar_t /Zc:forScope /Zc:inline /Yu"pch.h" /Fp"DEBUG\GREISPARSERTEST.PCH" /Fo"DEBUG\\" /Fd"DEBUG\VC142.PDB" /Gd /TP /analyze- /FC C:\USERS\GVOZDEV\DESKTOP\UIRS5SEMESTER2019\SRC\TESTS\GREISPARSERTEST\VAR32TEST.CPP
^C:\USERS\GVOZDEV\DESKTOP\UIRS5SEMESTER2019\SRC\TESTS\GREISPARSERTEST\VAR33TEST.CPP
/c /I"C:\USERS\GVOZDEV\DESKTOP\UIRS5SEMESTER2019\SRC\UIRS5SEM\PACKAGES\MICROSOFT.GOOGLETEST.V140.WINDESKTOP.MSVCSTL.STATIC.RT-DYN.1.8.1\BUILD\NATIVE\INCLUDE" /Zi /nologo /W3 /WX- /diagnostics:column /Od /Oy- /D WIN32 /D _DEBUG /D _CONSOLE /D _UNICODE /D UNICODE /Gm- /EHsc /RTC1 /MDd /GS /fp:precise /Zc:wchar_t /Zc:forScope /Zc:inline /Yu"pch.h" /Fp"DEBUG\GREISPARSERTEST.PCH" /Fo"DEBUG\\" /Fd"DEBUG\VC142.PDB" /Gd /TP /analyze- /FC C:\USERS\GVOZDEV\DESKTOP\UIRS5SEMESTER2019\SRC\TESTS\GREISPARSERTEST\VAR33TEST.CPP
^C:\USERS\GVOZDEV\DESKTOP\UIRS5SEMESTER2019\SRC\TESTS\GREISPARSERTEST\VAR34TEST.CPP
/c /I"C:\USERS\GVOZDEV\DESKTOP\UIRS5SEMESTER2019\SRC\UIRS5SEM\PACKAGES\MICROSOFT.GOOGLETEST.V140.WINDESKTOP.MSVCSTL.STATIC.RT-DYN.1.8.1\BUILD\NATIVE\INCLUDE" /Zi /nologo /W3 /WX- /diagnostics:column /Od /Oy- /D WIN32 /D _DEBUG /D _CONSOLE /D _UNICODE /D UNICODE /Gm- /EHsc /RTC1 /MDd /GS /fp:precise /Zc:wchar_t /Zc:forScope /Zc:inline /Yu"pch.h" /Fp"DEBUG\GREISPARSERTEST.PCH" /Fo"DEBUG\\" /Fd"DEBUG\VC142.PDB" /Gd /TP /analyze- /FC C:\USERS\GVOZDEV\DESKTOP\UIRS5SEMESTER2019\SRC\TESTS\GREISPARSERTEST\VAR34TEST.CPP
^C:\USERS\GVOZDEV\DESKTOP\UIRS5SEMESTER2019\SRC\TESTS\GREISPARSERTEST\VAR35TEST.CPP
/c /I"C:\USERS\GVOZDEV\DESKTOP\UIRS5SEMESTER2019\SRC\UIRS5SEM\PACKAGES\MICROSOFT.GOOGLETEST.V140.WINDESKTOP.MSVCSTL.STATIC.RT-DYN.1.8.1\BUILD\NATIVE\INCLUDE" /Zi /nologo /W3 /WX- /diagnostics:column /Od /Oy- /D WIN32 /D _DEBUG /D _CONSOLE /D _UNICODE /D UNICODE /Gm- /EHsc /RTC1 /MDd /GS /fp:precise /Zc:wchar_t /Zc:forScope /Zc:inline /Yu"pch.h" /Fp"DEBUG\GREISPARSERTEST.PCH" /Fo"DEBUG\\" /Fd"DEBUG\VC142.PDB" /Gd /TP /analyze- /FC C:\USERS\GVOZDEV\DESKTOP\UIRS5SEMESTER2019\SRC\TESTS\GREISPARSERTEST\VAR35TEST.CPP
^C:\USERS\GVOZDEV\DESKTOP\UIRS5SEMESTER2019\SRC\TESTS\GREISPARSERTEST\VAR36TEST.CPP
/c /I"C:\USERS\GVOZDEV\DESKTOP\UIRS5SEMESTER2019\SRC\UIRS5SEM\PACKAGES\MICROSOFT.GOOGLETEST.V140.WINDESKTOP.MSVCSTL.STATIC.RT-DYN.1.8.1\BUILD\NATIVE\INCLUDE" /Zi /nologo /W3 /WX- /diagnostics:column /Od /Oy- /D WIN32 /D _DEBUG /D _CONSOLE /D _UNICODE /D UNICODE /Gm- /EHsc /RTC1 /MDd /GS /fp:precise /Zc:wchar_t /Zc:forScope /Zc:inline /Yu"pch.h" /Fp"DEBUG\GREISPARSERTEST.PCH" /Fo"DEBUG\\" /Fd"DEBUG\VC142.PDB" /Gd /TP /analyze- /FC C:\USERS\GVOZDEV\DESKTOP\UIRS5SEMESTER2019\SRC\TESTS\GREISPARSERTEST\VAR36TEST.CPP
^C:\USERS\GVOZDEV\DESKTOP\UIRS5SEMESTER2019\SRC\TESTS\GREISPARSERTEST\VAR37TEST.CPP
/c /I"C:\USERS\GVOZDEV\DESKTOP\UIRS5SEMESTER2019\SRC\UIRS5SEM\PACKAGES\MICROSOFT.GOOGLETEST.V140.WINDESKTOP.MSVCSTL.STATIC.RT-DYN.1.8.1\BUILD\NATIVE\INCLUDE" /Zi /nologo /W3 /WX- /diagnostics:column /Od /Oy- /D WIN32 /D _DEBUG /D _CONSOLE /D _UNICODE /D UNICODE /Gm- /EHsc /RTC1 /MDd /GS /fp:precise /Zc:wchar_t /Zc:forScope /Zc:inline /Yu"pch.h" /Fp"DEBUG\GREISPARSERTEST.PCH" /Fo"DEBUG\\" /Fd"DEBUG\VC142.PDB" /Gd /TP /analyze- /FC C:\USERS\GVOZDEV\DESKTOP\UIRS5SEMESTER2019\SRC\TESTS\GREISPARSERTEST\VAR37TEST.CPP
^C:\USERS\GVOZDEV\DESKTOP\UIRS5SEMESTER2019\SRC\TESTS\GREISPARSERTEST\VAR38TEST.CPP
/c /I"C:\USERS\GVOZDEV\DESKTOP\UIRS5SEMESTER2019\SRC\UIRS5SEM\PACKAGES\MICROSOFT.GOOGLETEST.V140.WINDESKTOP.MSVCSTL.STATIC.RT-DYN.1.8.1\BUILD\NATIVE\INCLUDE" /Zi /nologo /W3 /WX- /diagnostics:column /Od /Oy- /D WIN32 /D _DEBUG /D _CONSOLE /D _UNICODE /D UNICODE /Gm- /EHsc /RTC1 /MDd /GS /fp:precise /Zc:wchar_t /Zc:forScope /Zc:inline /Yu"pch.h" /Fp"DEBUG\GREISPARSERTEST.PCH" /Fo"DEBUG\\" /Fd"DEBUG\VC142.PDB" /Gd /TP /analyze- /FC C:\USERS\GVOZDEV\DESKTOP\UIRS5SEMESTER2019\SRC\TESTS\GREISPARSERTEST\VAR38TEST.CPP
^C:\USERS\GVOZDEV\DESKTOP\UIRS5SEMESTER2019\SRC\TESTS\GREISPARSERTEST\VAR39TEST.CPP
/c /I"C:\USERS\GVOZDEV\DESKTOP\UIRS5SEMESTER2019\SRC\UIRS5SEM\PACKAGES\MICROSOFT.GOOGLETEST.V140.WINDESKTOP.MSVCSTL.STATIC.RT-DYN.1.8.1\BUILD\NATIVE\INCLUDE" /Zi /nologo /W3 /WX- /diagnostics:column /Od /Oy- /D WIN32 /D _DEBUG /D _CONSOLE /D _UNICODE /D UNICODE /Gm- /EHsc /RTC1 /MDd /GS /fp:precise /Zc:wchar_t /Zc:forScope /Zc:inline /Yu"pch.h" /Fp"DEBUG\GREISPARSERTEST.PCH" /Fo"DEBUG\\" /Fd"DEBUG\VC142.PDB" /Gd /TP /analyze- /FC C:\USERS\GVOZDEV\DESKTOP\UIRS5SEMESTER2019\SRC\TESTS\GREISPARSERTEST\VAR39TEST.CPP
^C:\USERS\GVOZDEV\DESKTOP\UIRS5SEMESTER2019\SRC\TESTS\GREISPARSERTEST\VAR3TEST.CPP
/c /I"C:\USERS\GVOZDEV\DESKTOP\UIRS5SEMESTER2019\SRC\UIRS5SEM\PACKAGES\MICROSOFT.GOOGLETEST.V140.WINDESKTOP.MSVCSTL.STATIC.RT-DYN.1.8.1\BUILD\NATIVE\INCLUDE" /Zi /nologo /W3 /WX- /diagnostics:column /Od /Oy- /D WIN32 /D _DEBUG /D _CONSOLE /D _UNICODE /D UNICODE /Gm- /EHsc /RTC1 /MDd /GS /fp:precise /Zc:wchar_t /Zc:forScope /Zc:inline /Yu"pch.h" /Fp"DEBUG\GREISPARSERTEST.PCH" /Fo"DEBUG\\" /Fd"DEBUG\VC142.PDB" /Gd /TP /analyze- /FC C:\USERS\GVOZDEV\DESKTOP\UIRS5SEMESTER2019\SRC\TESTS\GREISPARSERTEST\VAR3TEST.CPP
^C:\USERS\GVOZDEV\DESKTOP\UIRS5SEMESTER2019\SRC\TESTS\GREISPARSERTEST\VAR40TEST.CPP
/c /I"C:\USERS\GVOZDEV\DESKTOP\UIRS5SEMESTER2019\SRC\UIRS5SEM\PACKAGES\MICROSOFT.GOOGLETEST.V140.WINDESKTOP.MSVCSTL.STATIC.RT-DYN.1.8.1\BUILD\NATIVE\INCLUDE" /Zi /nologo /W3 /WX- /diagnostics:column /Od /Oy- /D WIN32 /D _DEBUG /D _CONSOLE /D _UNICODE /D UNICODE /Gm- /EHsc /RTC1 /MDd /GS /fp:precise /Zc:wchar_t /Zc:forScope /Zc:inline /Yu"pch.h" /Fp"DEBUG\GREISPARSERTEST.PCH" /Fo"DEBUG\\" /Fd"DEBUG\VC142.PDB" /Gd /TP /analyze- /FC C:\USERS\GVOZDEV\DESKTOP\UIRS5SEMESTER2019\SRC\TESTS\GREISPARSERTEST\VAR40TEST.CPP
^C:\USERS\GVOZDEV\DESKTOP\UIRS5SEMESTER2019\SRC\TESTS\GREISPARSERTEST\VAR41TEST.CPP
/c /I"C:\USERS\GVOZDEV\DESKTOP\UIRS5SEMESTER2019\SRC\UIRS5SEM\PACKAGES\MICROSOFT.GOOGLETEST.V140.WINDESKTOP.MSVCSTL.STATIC.RT-DYN.1.8.1\BUILD\NATIVE\INCLUDE" /Zi /nologo /W3 /WX- /diagnostics:column /Od /Oy- /D WIN32 /D _DEBUG /D _CONSOLE /D _UNICODE /D UNICODE /Gm- /EHsc /RTC1 /MDd /GS /fp:precise /Zc:wchar_t /Zc:forScope /Zc:inline /Yu"pch.h" /Fp"DEBUG\GREISPARSERTEST.PCH" /Fo"DEBUG\\" /Fd"DEBUG\VC142.PDB" /Gd /TP /analyze- /FC C:\USERS\GVOZDEV\DESKTOP\UIRS5SEMESTER2019\SRC\TESTS\GREISPARSERTEST\VAR41TEST.CPP
^C:\USERS\GVOZDEV\DESKTOP\UIRS5SEMESTER2019\SRC\TESTS\GREISPARSERTEST\VAR42TEST.CPP
/c /I"C:\USERS\GVOZDEV\DESKTOP\UIRS5SEMESTER2019\SRC\UIRS5SEM\PACKAGES\MICROSOFT.GOOGLETEST.V140.WINDESKTOP.MSVCSTL.STATIC.RT-DYN.1.8.1\BUILD\NATIVE\INCLUDE" /Zi /nologo /W3 /WX- /diagnostics:column /Od /Oy- /D WIN32 /D _DEBUG /D _CONSOLE /D _UNICODE /D UNICODE /Gm- /EHsc /RTC1 /MDd /GS /fp:precise /Zc:wchar_t /Zc:forScope /Zc:inline /Yu"pch.h" /Fp"DEBUG\GREISPARSERTEST.PCH" /Fo"DEBUG\\" /Fd"DEBUG\VC142.PDB" /Gd /TP /analyze- /FC C:\USERS\GVOZDEV\DESKTOP\UIRS5SEMESTER2019\SRC\TESTS\GREISPARSERTEST\VAR42TEST.CPP
^C:\USERS\GVOZDEV\DESKTOP\UIRS5SEMESTER2019\SRC\TESTS\GREISPARSERTEST\VAR43TEST.CPP
/c /I"C:\USERS\GVOZDEV\DESKTOP\UIRS5SEMESTER2019\SRC\UIRS5SEM\PACKAGES\MICROSOFT.GOOGLETEST.V140.WINDESKTOP.MSVCSTL.STATIC.RT-DYN.1.8.1\BUILD\NATIVE\INCLUDE" /Zi /nologo /W3 /WX- /diagnostics:column /Od /Oy- /D WIN32 /D _DEBUG /D _CONSOLE /D _UNICODE /D UNICODE /Gm- /EHsc /RTC1 /MDd /GS /fp:precise /Zc:wchar_t /Zc:forScope /Zc:inline /Yu"pch.h" /Fp"DEBUG\GREISPARSERTEST.PCH" /Fo"DEBUG\\" /Fd"DEBUG\VC142.PDB" /Gd /TP /analyze- /FC C:\USERS\GVOZDEV\DESKTOP\UIRS5SEMESTER2019\SRC\TESTS\GREISPARSERTEST\VAR43TEST.CPP
^C:\USERS\GVOZDEV\DESKTOP\UIRS5SEMESTER2019\SRC\TESTS\GREISPARSERTEST\VAR44TEST.CPP
/c /I"C:\USERS\GVOZDEV\DESKTOP\UIRS5SEMESTER2019\SRC\UIRS5SEM\PACKAGES\MICROSOFT.GOOGLETEST.V140.WINDESKTOP.MSVCSTL.STATIC.RT-DYN.1.8.1\BUILD\NATIVE\INCLUDE" /Zi /nologo /W3 /WX- /diagnostics:column /Od /Oy- /D WIN32 /D _DEBUG /D _CONSOLE /D _UNICODE /D UNICODE /Gm- /EHsc /RTC1 /MDd /GS /fp:precise /Zc:wchar_t /Zc:forScope /Zc:inline /Yu"pch.h" /Fp"DEBUG\GREISPARSERTEST.PCH" /Fo"DEBUG\\" /Fd"DEBUG\VC142.PDB" /Gd /TP /analyze- /FC C:\USERS\GVOZDEV\DESKTOP\UIRS5SEMESTER2019\SRC\TESTS\GREISPARSERTEST\VAR44TEST.CPP
^C:\USERS\GVOZDEV\DESKTOP\UIRS5SEMESTER2019\SRC\TESTS\GREISPARSERTEST\VAR45TEST.CPP
/c /I"C:\USERS\GVOZDEV\DESKTOP\UIRS5SEMESTER2019\SRC\UIRS5SEM\PACKAGES\MICROSOFT.GOOGLETEST.V140.WINDESKTOP.MSVCSTL.STATIC.RT-DYN.1.8.1\BUILD\NATIVE\INCLUDE" /Zi /nologo /W3 /WX- /diagnostics:column /Od /Oy- /D WIN32 /D _DEBUG /D _CONSOLE /D _UNICODE /D UNICODE /Gm- /EHsc /RTC1 /MDd /GS /fp:precise /Zc:wchar_t /Zc:forScope /Zc:inline /Yu"pch.h" /Fp"DEBUG\GREISPARSERTEST.PCH" /Fo"DEBUG\\" /Fd"DEBUG\VC142.PDB" /Gd /TP /analyze- /FC C:\USERS\GVOZDEV\DESKTOP\UIRS5SEMESTER2019\SRC\TESTS\GREISPARSERTEST\VAR45TEST.CPP
^C:\USERS\GVOZDEV\DESKTOP\UIRS5SEMESTER2019\SRC\TESTS\GREISPARSERTEST\VAR46TEST.CPP
/c /I"C:\USERS\GVOZDEV\DESKTOP\UIRS5SEMESTER2019\SRC\UIRS5SEM\PACKAGES\MICROSOFT.GOOGLETEST.V140.WINDESKTOP.MSVCSTL.STATIC.RT-DYN.1.8.1\BUILD\NATIVE\INCLUDE" /Zi /nologo /W3 /WX- /diagnostics:column /Od /Oy- /D WIN32 /D _DEBUG /D _CONSOLE /D _UNICODE /D UNICODE /Gm- /EHsc /RTC1 /MDd /GS /fp:precise /Zc:wchar_t /Zc:forScope /Zc:inline /Yu"pch.h" /Fp"DEBUG\GREISPARSERTEST.PCH" /Fo"DEBUG\\" /Fd"DEBUG\VC142.PDB" /Gd /TP /analyze- /FC C:\USERS\GVOZDEV\DESKTOP\UIRS5SEMESTER2019\SRC\TESTS\GREISPARSERTEST\VAR46TEST.CPP
^C:\USERS\GVOZDEV\DESKTOP\UIRS5SEMESTER2019\SRC\TESTS\GREISPARSERTEST\VAR47TEST.CPP
/c /I"C:\USERS\GVOZDEV\DESKTOP\UIRS5SEMESTER2019\SRC\UIRS5SEM\PACKAGES\MICROSOFT.GOOGLETEST.V140.WINDESKTOP.MSVCSTL.STATIC.RT-DYN.1.8.1\BUILD\NATIVE\INCLUDE" /Zi /nologo /W3 /WX- /diagnostics:column /Od /Oy- /D WIN32 /D _DEBUG /D _CONSOLE /D _UNICODE /D UNICODE /Gm- /EHsc /RTC1 /MDd /GS /fp:precise /Zc:wchar_t /Zc:forScope /Zc:inline /Yu"pch.h" /Fp"DEBUG\GREISPARSERTEST.PCH" /Fo"DEBUG\\" /Fd"DEBUG\VC142.PDB" /Gd /TP /analyze- /FC C:\USERS\GVOZDEV\DESKTOP\UIRS5SEMESTER2019\SRC\TESTS\GREISPARSERTEST\VAR47TEST.CPP
^C:\USERS\GVOZDEV\DESKTOP\UIRS5SEMESTER2019\SRC\TESTS\GREISPARSERTEST\VAR48TEST.CPP
/c /I"C:\USERS\GVOZDEV\DESKTOP\UIRS5SEMESTER2019\SRC\UIRS5SEM\PACKAGES\MICROSOFT.GOOGLETEST.V140.WINDESKTOP.MSVCSTL.STATIC.RT-DYN.1.8.1\BUILD\NATIVE\INCLUDE" /Zi /nologo /W3 /WX- /diagnostics:column /Od /Oy- /D WIN32 /D _DEBUG /D _CONSOLE /D _UNICODE /D UNICODE /Gm- /EHsc /RTC1 /MDd /GS /fp:precise /Zc:wchar_t /Zc:forScope /Zc:inline /Yu"pch.h" /Fp"DEBUG\GREISPARSERTEST.PCH" /Fo"DEBUG\\" /Fd"DEBUG\VC142.PDB" /Gd /TP /analyze- /FC C:\USERS\GVOZDEV\DESKTOP\UIRS5SEMESTER2019\SRC\TESTS\GREISPARSERTEST\VAR48TEST.CPP
^C:\USERS\GVOZDEV\DESKTOP\UIRS5SEMESTER2019\SRC\TESTS\GREISPARSERTEST\VAR49TEST.CPP
/c /I"C:\USERS\GVOZDEV\DESKTOP\UIRS5SEMESTER2019\SRC\UIRS5SEM\PACKAGES\MICROSOFT.GOOGLETEST.V140.WINDESKTOP.MSVCSTL.STATIC.RT-DYN.1.8.1\BUILD\NATIVE\INCLUDE" /Zi /nologo /W3 /WX- /diagnostics:column /Od /Oy- /D WIN32 /D _DEBUG /D _CONSOLE /D _UNICODE /D UNICODE /Gm- /EHsc /RTC1 /MDd /GS /fp:precise /Zc:wchar_t /Zc:forScope /Zc:inline /Yu"pch.h" /Fp"DEBUG\GREISPARSERTEST.PCH" /Fo"DEBUG\\" /Fd"DEBUG\VC142.PDB" /Gd /TP /analyze- /FC C:\USERS\GVOZDEV\DESKTOP\UIRS5SEMESTER2019\SRC\TESTS\GREISPARSERTEST\VAR49TEST.CPP
^C:\USERS\GVOZDEV\DESKTOP\UIRS5SEMESTER2019\SRC\TESTS\GREISPARSERTEST\VAR4TEST.CPP
/c /I"C:\USERS\GVOZDEV\DESKTOP\UIRS5SEMESTER2019\SRC\UIRS5SEM\PACKAGES\MICROSOFT.GOOGLETEST.V140.WINDESKTOP.MSVCSTL.STATIC.RT-DYN.1.8.1\BUILD\NATIVE\INCLUDE" /Zi /nologo /W3 /WX- /diagnostics:column /Od /Oy- /D WIN32 /D _DEBUG /D _CONSOLE /D _UNICODE /D UNICODE /Gm- /EHsc /RTC1 /MDd /GS /fp:precise /Zc:wchar_t /Zc:forScope /Zc:inline /Yu"pch.h" /Fp"DEBUG\GREISPARSERTEST.PCH" /Fo"DEBUG\\" /Fd"DEBUG\VC142.PDB" /Gd /TP /analyze- /FC C:\USERS\GVOZDEV\DESKTOP\UIRS5SEMESTER2019\SRC\TESTS\GREISPARSERTEST\VAR4TEST.CPP
^C:\USERS\GVOZDEV\DESKTOP\UIRS5SEMESTER2019\SRC\TESTS\GREISPARSERTEST\VAR50TEST.CPP
/c /I"C:\USERS\GVOZDEV\DESKTOP\UIRS5SEMESTER2019\SRC\UIRS5SEM\PACKAGES\MICROSOFT.GOOGLETEST.V140.WINDESKTOP.MSVCSTL.STATIC.RT-DYN.1.8.1\BUILD\NATIVE\INCLUDE" /Zi /nologo /W3 /WX- /diagnostics:column /Od /Oy- /D WIN32 /D _DEBUG /D _CONSOLE /D _UNICODE /D UNICODE /Gm- /EHsc /RTC1 /MDd /GS /fp:precise /Zc:wchar_t /Zc:forScope /Zc:inline /Yu"pch.h" /Fp"DEBUG\GREISPARSERTEST.PCH" /Fo"DEBUG\\" /Fd"DEBUG\VC142.PDB" /Gd /TP /analyze- /FC C:\USERS\GVOZDEV\DESKTOP\UIRS5SEMESTER2019\SRC\TESTS\GREISPARSERTEST\VAR50TEST.CPP
^C:\USERS\GVOZDEV\DESKTOP\UIRS5SEMESTER2019\SRC\TESTS\GREISPARSERTEST\VAR51TEST.CPP
/c /I"C:\USERS\GVOZDEV\DESKTOP\UIRS5SEMESTER2019\SRC\UIRS5SEM\PACKAGES\MICROSOFT.GOOGLETEST.V140.WINDESKTOP.MSVCSTL.STATIC.RT-DYN.1.8.1\BUILD\NATIVE\INCLUDE" /Zi /nologo /W3 /WX- /diagnostics:column /Od /Oy- /D WIN32 /D _DEBUG /D _CONSOLE /D _UNICODE /D UNICODE /Gm- /EHsc /RTC1 /MDd /GS /fp:precise /Zc:wchar_t /Zc:forScope /Zc:inline /Yu"pch.h" /Fp"DEBUG\GREISPARSERTEST.PCH" /Fo"DEBUG\\" /Fd"DEBUG\VC142.PDB" /Gd /TP /analyze- /FC C:\USERS\GVOZDEV\DESKTOP\UIRS5SEMESTER2019\SRC\TESTS\GREISPARSERTEST\VAR51TEST.CPP
^C:\USERS\GVOZDEV\DESKTOP\UIRS5SEMESTER2019\SRC\TESTS\GREISPARSERTEST\VAR52TEST.CPP
/c /I"C:\USERS\GVOZDEV\DESKTOP\UIRS5SEMESTER2019\SRC\UIRS5SEM\PACKAGES\MICROSOFT.GOOGLETEST.V140.WINDESKTOP.MSVCSTL.STATIC.RT-DYN.1.8.1\BUILD\NATIVE\INCLUDE" /Zi /nologo /W3 /WX- /diagnostics:column /Od /Oy- /D WIN32 /D _DEBUG /D _CONSOLE /D _UNICODE /D UNICODE /Gm- /EHsc /RTC1 /MDd /GS /fp:precise /Zc:wchar_t /Zc:forScope /Zc:inline /Yu"pch.h" /Fp"DEBUG\GREISPARSERTEST.PCH" /Fo"DEBUG\\" /Fd"DEBUG\VC142.PDB" /Gd /TP /analyze- /FC C:\USERS\GVOZDEV\DESKTOP\UIRS5SEMESTER2019\SRC\TESTS\GREISPARSERTEST\VAR52TEST.CPP
^C:\USERS\GVOZDEV\DESKTOP\UIRS5SEMESTER2019\SRC\TESTS\GREISPARSERTEST\VAR53TEST.CPP
/c /I"C:\USERS\GVOZDEV\DESKTOP\UIRS5SEMESTER2019\SRC\UIRS5SEM\PACKAGES\MICROSOFT.GOOGLETEST.V140.WINDESKTOP.MSVCSTL.STATIC.RT-DYN.1.8.1\BUILD\NATIVE\INCLUDE" /Zi /nologo /W3 /WX- /diagnostics:column /Od /Oy- /D WIN32 /D _DEBUG /D _CONSOLE /D _UNICODE /D UNICODE /Gm- /EHsc /RTC1 /MDd /GS /fp:precise /Zc:wchar_t /Zc:forScope /Zc:inline /Yu"pch.h" /Fp"DEBUG\GREISPARSERTEST.PCH" /Fo"DEBUG\\" /Fd"DEBUG\VC142.PDB" /Gd /TP /analyze- /FC C:\USERS\GVOZDEV\DESKTOP\UIRS5SEMESTER2019\SRC\TESTS\GREISPARSERTEST\VAR53TEST.CPP
^C:\USERS\GVOZDEV\DESKTOP\UIRS5SEMESTER2019\SRC\TESTS\GREISPARSERTEST\VAR54TEST.CPP
/c /I"C:\USERS\GVOZDEV\DESKTOP\UIRS5SEMESTER2019\SRC\UIRS5SEM\PACKAGES\MICROSOFT.GOOGLETEST.V140.WINDESKTOP.MSVCSTL.STATIC.RT-DYN.1.8.1\BUILD\NATIVE\INCLUDE" /Zi /nologo /W3 /WX- /diagnostics:column /Od /Oy- /D WIN32 /D _DEBUG /D _CONSOLE /D _UNICODE /D UNICODE /Gm- /EHsc /RTC1 /MDd /GS /fp:precise /Zc:wchar_t /Zc:forScope /Zc:inline /Yu"pch.h" /Fp"DEBUG\GREISPARSERTEST.PCH" /Fo"DEBUG\\" /Fd"DEBUG\VC142.PDB" /Gd /TP /analyze- /FC C:\USERS\GVOZDEV\DESKTOP\UIRS5SEMESTER2019\SRC\TESTS\GREISPARSERTEST\VAR54TEST.CPP
^C:\USERS\GVOZDEV\DESKTOP\UIRS5SEMESTER2019\SRC\TESTS\GREISPARSERTEST\VAR55TEST.CPP
/c /I"C:\USERS\GVOZDEV\DESKTOP\UIRS5SEMESTER2019\SRC\UIRS5SEM\PACKAGES\MICROSOFT.GOOGLETEST.V140.WINDESKTOP.MSVCSTL.STATIC.RT-DYN.1.8.1\BUILD\NATIVE\INCLUDE" /Zi /nologo /W3 /WX- /diagnostics:column /Od /Oy- /D WIN32 /D _DEBUG /D _CONSOLE /D _UNICODE /D UNICODE /Gm- /EHsc /RTC1 /MDd /GS /fp:precise /Zc:wchar_t /Zc:forScope /Zc:inline /Yu"pch.h" /Fp"DEBUG\GREISPARSERTEST.PCH" /Fo"DEBUG\\" /Fd"DEBUG\VC142.PDB" /Gd /TP /analyze- /FC C:\USERS\GVOZDEV\DESKTOP\UIRS5SEMESTER2019\SRC\TESTS\GREISPARSERTEST\VAR55TEST.CPP
^C:\USERS\GVOZDEV\DESKTOP\UIRS5SEMESTER2019\SRC\TESTS\GREISPARSERTEST\VAR56TEST.CPP
/c /I"C:\USERS\GVOZDEV\DESKTOP\UIRS5SEMESTER2019\SRC\UIRS5SEM\PACKAGES\MICROSOFT.GOOGLETEST.V140.WINDESKTOP.MSVCSTL.STATIC.RT-DYN.1.8.1\BUILD\NATIVE\INCLUDE" /Zi /nologo /W3 /WX- /diagnostics:column /Od /Oy- /D WIN32 /D _DEBUG /D _CONSOLE /D _UNICODE /D UNICODE /Gm- /EHsc /RTC1 /MDd /GS /fp:precise /Zc:wchar_t /Zc:forScope /Zc:inline /Yu"pch.h" /Fp"DEBUG\GREISPARSERTEST.PCH" /Fo"DEBUG\\" /Fd"DEBUG\VC142.PDB" /Gd /TP /analyze- /FC C:\USERS\GVOZDEV\DESKTOP\UIRS5SEMESTER2019\SRC\TESTS\GREISPARSERTEST\VAR56TEST.CPP
^C:\USERS\GVOZDEV\DESKTOP\UIRS5SEMESTER2019\SRC\TESTS\GREISPARSERTEST\VAR57TEST.CPP
/c /I"C:\USERS\GVOZDEV\DESKTOP\UIRS5SEMESTER2019\SRC\UIRS5SEM\PACKAGES\MICROSOFT.GOOGLETEST.V140.WINDESKTOP.MSVCSTL.STATIC.RT-DYN.1.8.1\BUILD\NATIVE\INCLUDE" /Zi /nologo /W3 /WX- /diagnostics:column /Od /Oy- /D WIN32 /D _DEBUG /D _CONSOLE /D _UNICODE /D UNICODE /Gm- /EHsc /RTC1 /MDd /GS /fp:precise /Zc:wchar_t /Zc:forScope /Zc:inline /Yu"pch.h" /Fp"DEBUG\GREISPARSERTEST.PCH" /Fo"DEBUG\\" /Fd"DEBUG\VC142.PDB" /Gd /TP /analyze- /FC C:\USERS\GVOZDEV\DESKTOP\UIRS5SEMESTER2019\SRC\TESTS\GREISPARSERTEST\VAR57TEST.CPP
^C:\USERS\GVOZDEV\DESKTOP\UIRS5SEMESTER2019\SRC\TESTS\GREISPARSERTEST\VAR58TEST.CPP
/c /I"C:\USERS\GVOZDEV\DESKTOP\UIRS5SEMESTER2019\SRC\UIRS5SEM\PACKAGES\MICROSOFT.GOOGLETEST.V140.WINDESKTOP.MSVCSTL.STATIC.RT-DYN.1.8.1\BUILD\NATIVE\INCLUDE" /Zi /nologo /W3 /WX- /diagnostics:column /Od /Oy- /D WIN32 /D _DEBUG /D _CONSOLE /D _UNICODE /D UNICODE /Gm- /EHsc /RTC1 /MDd /GS /fp:precise /Zc:wchar_t /Zc:forScope /Zc:inline /Yu"pch.h" /Fp"DEBUG\GREISPARSERTEST.PCH" /Fo"DEBUG\\" /Fd"DEBUG\VC142.PDB" /Gd /TP /analyze- /FC C:\USERS\GVOZDEV\DESKTOP\UIRS5SEMESTER2019\SRC\TESTS\GREISPARSERTEST\VAR58TEST.CPP
^C:\USERS\GVOZDEV\DESKTOP\UIRS5SEMESTER2019\SRC\TESTS\GREISPARSERTEST\VAR59TEST.CPP
/c /I"C:\USERS\GVOZDEV\DESKTOP\UIRS5SEMESTER2019\SRC\UIRS5SEM\PACKAGES\MICROSOFT.GOOGLETEST.V140.WINDESKTOP.MSVCSTL.STATIC.RT-DYN.1.8.1\BUILD\NATIVE\INCLUDE" /Zi /nologo /W3 /WX- /diagnostics:column /Od /Oy- /D WIN32 /D _DEBUG /D _CONSOLE /D _UNICODE /D UNICODE /Gm- /EHsc /RTC1 /MDd /GS /fp:precise /Zc:wchar_t /Zc:forScope /Zc:inline /Yu"pch.h" /Fp"DEBUG\GREISPARSERTEST.PCH" /Fo"DEBUG\\" /Fd"DEBUG\VC142.PDB" /Gd /TP /analyze- /FC C:\USERS\GVOZDEV\DESKTOP\UIRS5SEMESTER2019\SRC\TESTS\GREISPARSERTEST\VAR59TEST.CPP
^C:\USERS\GVOZDEV\DESKTOP\UIRS5SEMESTER2019\SRC\TESTS\GREISPARSERTEST\VAR5TEST.CPP
/c /I"C:\USERS\GVOZDEV\DESKTOP\UIRS5SEMESTER2019\SRC\UIRS5SEM\PACKAGES\MICROSOFT.GOOGLETEST.V140.WINDESKTOP.MSVCSTL.STATIC.RT-DYN.1.8.1\BUILD\NATIVE\INCLUDE" /Zi /nologo /W3 /WX- /diagnostics:column /Od /Oy- /D WIN32 /D _DEBUG /D _CONSOLE /D _UNICODE /D UNICODE /Gm- /EHsc /RTC1 /MDd /GS /fp:precise /Zc:wchar_t /Zc:forScope /Zc:inline /Yu"pch.h" /Fp"DEBUG\GREISPARSERTEST.PCH" /Fo"DEBUG\\" /Fd"DEBUG\VC142.PDB" /Gd /TP /analyze- /FC C:\USERS\GVOZDEV\DESKTOP\UIRS5SEMESTER2019\SRC\TESTS\GREISPARSERTEST\VAR5TEST.CPP
^C:\USERS\GVOZDEV\DESKTOP\UIRS5SEMESTER2019\SRC\TESTS\GREISPARSERTEST\VAR60TEST.CPP
/c /I"C:\USERS\GVOZDEV\DESKTOP\UIRS5SEMESTER2019\SRC\UIRS5SEM\PACKAGES\MICROSOFT.GOOGLETEST.V140.WINDESKTOP.MSVCSTL.STATIC.RT-DYN.1.8.1\BUILD\NATIVE\INCLUDE" /Zi /nologo /W3 /WX- /diagnostics:column /Od /Oy- /D WIN32 /D _DEBUG /D _CONSOLE /D _UNICODE /D UNICODE /Gm- /EHsc /RTC1 /MDd /GS /fp:precise /Zc:wchar_t /Zc:forScope /Zc:inline /Yu"pch.h" /Fp"DEBUG\GREISPARSERTEST.PCH" /Fo"DEBUG\\" /Fd"DEBUG\VC142.PDB" /Gd /TP /analyze- /FC C:\USERS\GVOZDEV\DESKTOP\UIRS5SEMESTER2019\SRC\TESTS\GREISPARSERTEST\VAR60TEST.CPP
^C:\USERS\GVOZDEV\DESKTOP\UIRS5SEMESTER2019\SRC\TESTS\GREISPARSERTEST\VAR61TEST.CPP
/c /I"C:\USERS\GVOZDEV\DESKTOP\UIRS5SEMESTER2019\SRC\UIRS5SEM\PACKAGES\MICROSOFT.GOOGLETEST.V140.WINDESKTOP.MSVCSTL.STATIC.RT-DYN.1.8.1\BUILD\NATIVE\INCLUDE" /Zi /nologo /W3 /WX- /diagnostics:column /Od /Oy- /D WIN32 /D _DEBUG /D _CONSOLE /D _UNICODE /D UNICODE /Gm- /EHsc /RTC1 /MDd /GS /fp:precise /Zc:wchar_t /Zc:forScope /Zc:inline /Yu"pch.h" /Fp"DEBUG\GREISPARSERTEST.PCH" /Fo"DEBUG\\" /Fd"DEBUG\VC142.PDB" /Gd /TP /analyze- /FC C:\USERS\GVOZDEV\DESKTOP\UIRS5SEMESTER2019\SRC\TESTS\GREISPARSERTEST\VAR61TEST.CPP
^C:\USERS\GVOZDEV\DESKTOP\UIRS5SEMESTER2019\SRC\TESTS\GREISPARSERTEST\VAR62TEST.CPP
/c /I"C:\USERS\GVOZDEV\DESKTOP\UIRS5SEMESTER2019\SRC\UIRS5SEM\PACKAGES\MICROSOFT.GOOGLETEST.V140.WINDESKTOP.MSVCSTL.STATIC.RT-DYN.1.8.1\BUILD\NATIVE\INCLUDE" /Zi /nologo /W3 /WX- /diagnostics:column /Od /Oy- /D WIN32 /D _DEBUG /D _CONSOLE /D _UNICODE /D UNICODE /Gm- /EHsc /RTC1 /MDd /GS /fp:precise /Zc:wchar_t /Zc:forScope /Zc:inline /Yu"pch.h" /Fp"DEBUG\GREISPARSERTEST.PCH" /Fo"DEBUG\\" /Fd"DEBUG\VC142.PDB" /Gd /TP /analyze- /FC C:\USERS\GVOZDEV\DESKTOP\UIRS5SEMESTER2019\SRC\TESTS\GREISPARSERTEST\VAR62TEST.CPP
^C:\USERS\GVOZDEV\DESKTOP\UIRS5SEMESTER2019\SRC\TESTS\GREISPARSERTEST\VAR63TEST.CPP
/c /I"C:\USERS\GVOZDEV\DESKTOP\UIRS5SEMESTER2019\SRC\UIRS5SEM\PACKAGES\MICROSOFT.GOOGLETEST.V140.WINDESKTOP.MSVCSTL.STATIC.RT-DYN.1.8.1\BUILD\NATIVE\INCLUDE" /Zi /nologo /W3 /WX- /diagnostics:column /Od /Oy- /D WIN32 /D _DEBUG /D _CONSOLE /D _UNICODE /D UNICODE /Gm- /EHsc /RTC1 /MDd /GS /fp:precise /Zc:wchar_t /Zc:forScope /Zc:inline /Yu"pch.h" /Fp"DEBUG\GREISPARSERTEST.PCH" /Fo"DEBUG\\" /Fd"DEBUG\VC142.PDB" /Gd /TP /analyze- /FC C:\USERS\GVOZDEV\DESKTOP\UIRS5SEMESTER2019\SRC\TESTS\GREISPARSERTEST\VAR63TEST.CPP
^C:\USERS\GVOZDEV\DESKTOP\UIRS5SEMESTER2019\SRC\TESTS\GREISPARSERTEST\VAR64TEST.CPP
/c /I"C:\USERS\GVOZDEV\DESKTOP\UIRS5SEMESTER2019\SRC\UIRS5SEM\PACKAGES\MICROSOFT.GOOGLETEST.V140.WINDESKTOP.MSVCSTL.STATIC.RT-DYN.1.8.1\BUILD\NATIVE\INCLUDE" /Zi /nologo /W3 /WX- /diagnostics:column /Od /Oy- /D WIN32 /D _DEBUG /D _CONSOLE /D _UNICODE /D UNICODE /Gm- /EHsc /RTC1 /MDd /GS /fp:precise /Zc:wchar_t /Zc:forScope /Zc:inline /Yu"pch.h" /Fp"DEBUG\GREISPARSERTEST.PCH" /Fo"DEBUG\\" /Fd"DEBUG\VC142.PDB" /Gd /TP /analyze- /FC C:\USERS\GVOZDEV\DESKTOP\UIRS5SEMESTER2019\SRC\TESTS\GREISPARSERTEST\VAR64TEST.CPP
^C:\USERS\GVOZDEV\DESKTOP\UIRS5SEMESTER2019\SRC\TESTS\GREISPARSERTEST\VAR65TEST.CPP
/c /I"C:\USERS\GVOZDEV\DESKTOP\UIRS5SEMESTER2019\SRC\UIRS5SEM\PACKAGES\MICROSOFT.GOOGLETEST.V140.WINDESKTOP.MSVCSTL.STATIC.RT-DYN.1.8.1\BUILD\NATIVE\INCLUDE" /Zi /nologo /W3 /WX- /diagnostics:column /Od /Oy- /D WIN32 /D _DEBUG /D _CONSOLE /D _UNICODE /D UNICODE /Gm- /EHsc /RTC1 /MDd /GS /fp:precise /Zc:wchar_t /Zc:forScope /Zc:inline /Yu"pch.h" /Fp"DEBUG\GREISPARSERTEST.PCH" /Fo"DEBUG\\" /Fd"DEBUG\VC142.PDB" /Gd /TP /analyze- /FC C:\USERS\GVOZDEV\DESKTOP\UIRS5SEMESTER2019\SRC\TESTS\GREISPARSERTEST\VAR65TEST.CPP
^C:\USERS\GVOZDEV\DESKTOP\UIRS5SEMESTER2019\SRC\TESTS\GREISPARSERTEST\VAR66TEST.CPP
/c /I"C:\USERS\GVOZDEV\DESKTOP\UIRS5SEMESTER2019\SRC\UIRS5SEM\PACKAGES\MICROSOFT.GOOGLETEST.V140.WINDESKTOP.MSVCSTL.STATIC.RT-DYN.1.8.1\BUILD\NATIVE\INCLUDE" /Zi /nologo /W3 /WX- /diagnostics:column /Od /Oy- /D WIN32 /D _DEBUG /D _CONSOLE /D _UNICODE /D UNICODE /Gm- /EHsc /RTC1 /MDd /GS /fp:precise /Zc:wchar_t /Zc:forScope /Zc:inline /Yu"pch.h" /Fp"DEBUG\GREISPARSERTEST.PCH" /Fo"DEBUG\\" /Fd"DEBUG\VC142.PDB" /Gd /TP /analyze- /FC C:\USERS\GVOZDEV\DESKTOP\UIRS5SEMESTER2019\SRC\TESTS\GREISPARSERTEST\VAR66TEST.CPP
^C:\USERS\GVOZDEV\DESKTOP\UIRS5SEMESTER2019\SRC\TESTS\GREISPARSERTEST\VAR67TEST.CPP
/c /I"C:\USERS\GVOZDEV\DESKTOP\UIRS5SEMESTER2019\SRC\UIRS5SEM\PACKAGES\MICROSOFT.GOOGLETEST.V140.WINDESKTOP.MSVCSTL.STATIC.RT-DYN.1.8.1\BUILD\NATIVE\INCLUDE" /Zi /nologo /W3 /WX- /diagnostics:column /Od /Oy- /D WIN32 /D _DEBUG /D _CONSOLE /D _UNICODE /D UNICODE /Gm- /EHsc /RTC1 /MDd /GS /fp:precise /Zc:wchar_t /Zc:forScope /Zc:inline /Yu"pch.h" /Fp"DEBUG\GREISPARSERTEST.PCH" /Fo"DEBUG\\" /Fd"DEBUG\VC142.PDB" /Gd /TP /analyze- /FC C:\USERS\GVOZDEV\DESKTOP\UIRS5SEMESTER2019\SRC\TESTS\GREISPARSERTEST\VAR67TEST.CPP
^C:\USERS\GVOZDEV\DESKTOP\UIRS5SEMESTER2019\SRC\TESTS\GREISPARSERTEST\VAR68TEST.CPP
/c /I"C:\USERS\GVOZDEV\DESKTOP\UIRS5SEMESTER2019\SRC\UIRS5SEM\PACKAGES\MICROSOFT.GOOGLETEST.V140.WINDESKTOP.MSVCSTL.STATIC.RT-DYN.1.8.1\BUILD\NATIVE\INCLUDE" /Zi /nologo /W3 /WX- /diagnostics:column /Od /Oy- /D WIN32 /D _DEBUG /D _CONSOLE /D _UNICODE /D UNICODE /Gm- /EHsc /RTC1 /MDd /GS /fp:precise /Zc:wchar_t /Zc:forScope /Zc:inline /Yu"pch.h" /Fp"DEBUG\GREISPARSERTEST.PCH" /Fo"DEBUG\\" /Fd"DEBUG\VC142.PDB" /Gd /TP /analyze- /FC C:\USERS\GVOZDEV\DESKTOP\UIRS5SEMESTER2019\SRC\TESTS\GREISPARSERTEST\VAR68TEST.CPP
^C:\USERS\GVOZDEV\DESKTOP\UIRS5SEMESTER2019\SRC\TESTS\GREISPARSERTEST\VAR6TEST.CPP
/c /I"C:\USERS\GVOZDEV\DESKTOP\UIRS5SEMESTER2019\SRC\UIRS5SEM\PACKAGES\MICROSOFT.GOOGLETEST.V140.WINDESKTOP.MSVCSTL.STATIC.RT-DYN.1.8.1\BUILD\NATIVE\INCLUDE" /Zi /nologo /W3 /WX- /diagnostics:column /Od /Oy- /D WIN32 /D _DEBUG /D _CONSOLE /D _UNICODE /D UNICODE /Gm- /EHsc /RTC1 /MDd /GS /fp:precise /Zc:wchar_t /Zc:forScope /Zc:inline /Yu"pch.h" /Fp"DEBUG\GREISPARSERTEST.PCH" /Fo"DEBUG\\" /Fd"DEBUG\VC142.PDB" /Gd /TP /analyze- /FC C:\USERS\GVOZDEV\DESKTOP\UIRS5SEMESTER2019\SRC\TESTS\GREISPARSERTEST\VAR6TEST.CPP
^C:\USERS\GVOZDEV\DESKTOP\UIRS5SEMESTER2019\SRC\TESTS\GREISPARSERTEST\VAR7TEST.CPP
/c /I"C:\USERS\GVOZDEV\DESKTOP\UIRS5SEMESTER2019\SRC\UIRS5SEM\PACKAGES\MICROSOFT.GOOGLETEST.V140.WINDESKTOP.MSVCSTL.STATIC.RT-DYN.1.8.1\BUILD\NATIVE\INCLUDE" /Zi /nologo /W3 /WX- /diagnostics:column /Od /Oy- /D WIN32 /D _DEBUG /D _CONSOLE /D _UNICODE /D UNICODE /Gm- /EHsc /RTC1 /MDd /GS /fp:precise /Zc:wchar_t /Zc:forScope /Zc:inline /Yu"pch.h" /Fp"DEBUG\GREISPARSERTEST.PCH" /Fo"DEBUG\\" /Fd"DEBUG\VC142.PDB" /Gd /TP /analyze- /FC C:\USERS\GVOZDEV\DESKTOP\UIRS5SEMESTER2019\SRC\TESTS\GREISPARSERTEST\VAR7TEST.CPP
^C:\USERS\GVOZDEV\DESKTOP\UIRS5SEMESTER2019\SRC\TESTS\GREISPARSERTEST\VAR8TEST.CPP
/c /I"C:\USERS\GVOZDEV\DESKTOP\UIRS5SEMESTER2019\SRC\UIRS5SEM\PACKAGES\MICROSOFT.GOOGLETEST.V140.WINDESKTOP.MSVCSTL.STATIC.RT-DYN.1.8.1\BUILD\NATIVE\INCLUDE" /Zi /nologo /W3 /WX- /diagnostics:column /Od /Oy- /D WIN32 /D _DEBUG /D _CONSOLE /D _UNICODE /D UNICODE /Gm- /EHsc /RTC1 /MDd /GS /fp:precise /Zc:wchar_t /Zc:forScope /Zc:inline /Yu"pch.h" /Fp"DEBUG\GREISPARSERTEST.PCH" /Fo"DEBUG\\" /Fd"DEBUG\VC142.PDB" /Gd /TP /analyze- /FC C:\USERS\GVOZDEV\DESKTOP\UIRS5SEMESTER2019\SRC\TESTS\GREISPARSERTEST\VAR8TEST.CPP
^C:\USERS\GVOZDEV\DESKTOP\UIRS5SEMESTER2019\SRC\TESTS\GREISPARSERTEST\VAR9TEST.CPP
/c /I"C:\USERS\GVOZDEV\DESKTOP\UIRS5SEMESTER2019\SRC\UIRS5SEM\PACKAGES\MICROSOFT.GOOGLETEST.V140.WINDESKTOP.MSVCSTL.STATIC.RT-DYN.1.8.1\BUILD\NATIVE\INCLUDE" /Zi /nologo /W3 /WX- /diagnostics:column /Od /Oy- /D WIN32 /D _DEBUG /D _CONSOLE /D _UNICODE /D UNICODE /Gm- /EHsc /RTC1 /MDd /GS /fp:precise /Zc:wchar_t /Zc:forScope /Zc:inline /Yu"pch.h" /Fp"DEBUG\GREISPARSERTEST.PCH" /Fo"DEBUG\\" /Fd"DEBUG\VC142.PDB" /Gd /TP /analyze- /FC C:\USERS\GVOZDEV\DESKTOP\UIRS5SEMESTER2019\SRC\TESTS\GREISPARSERTEST\VAR9TEST.CPP
