﻿  Var10.cpp
  Var39.cpp
  Var40.cpp
  Var42.cpp
  Var43.cpp
  Var61.cpp
  Var9.cpp
  Создание кода...
  uirs5sem.vcxproj -> C:\Users\GVOZDEV\Desktop\uirs5semester2019\src\uirs5sem\x64\Debug\uirs5sem.exe
